145.0,161.0,170.0,146.0,128.0,123.0
181.0,163.0,137.0,128.0,109.0,90.0
3.16227766017,4.12310562562,5.83095189485,11.7046999107,31.0,44.7772263545
;
123.0,128.0,126.0,126.0,115.0,106.0,106.0,110.0,125.0
90.0,109.0,113.0,115.0,133.0,162.0,201.0,208.0,212.0
44.7772263545,31.0,27.0,25.0,10.0,7.21110255093,5.38516480713,6.0,1.0
;
88.0,78.0,53.0,50.0,57.0,50.0
209.0,214.0,176.0,168.0,129.0,109.0
1.0,8.94427191,6.32455532034,8.48528137424,13.9283882772,28.4429253067
;
1.0,6.0,12.0,50.0,53.0,67.0,105.0,123.0,171.0,192.0,216.0,255.0
208.0,203.0,159.0,109.0,95.0,88.0,86.0,90.0,75.0,54.0,17.0,13.0
1.0,6.32455532034,9.21954445729,28.4429253067,38.9486841883,40.8044115262,44.0,44.7772263545,21.1896201004,16.1245154966,16.0,2.0

