0.0,15.0,33.0,49.0,121.0,140.0,162.0,176.0,192.0,210.0,246.0,237.0,213.0
68.0,65.0,44.0,34.0,49.0,49.0,53.0,53.0,60.0,89.0,105.0,120.0,126.0
5.0,14.7648230602,21.0950231097,25.0,40.6078810085,40.6078810085,38.6264158317,33.5410196625,28.1602556807,15.2315462117,11.401754251,8.60232526704,1.0
;
246.0,212.0,192.0,162.0,176.0,192.0,140.0,162.0,121.0,140.0,0.0,15.0,33.0,49.0,121.0
77.0,58.0,60.0,53.0,53.0,60.0,49.0,53.0,49.0,49.0,68.0,65.0,44.0,34.0,49.0
1.0,13.416407865,28.1602556807,38.6264158317,33.5410196625,28.1602556807,40.6078810085,38.6264158317,40.6078810085,40.6078810085,5.0,14.7648230602,21.0950231097,25.0,40.6078810085
;
121.0,113.0,100.0,85.0,63.0
49.0,90.0,118.0,130.0,130.0
40.6078810085,12.0830459736,10.7703296143,6.0,1.0
;
125.0,159.0,168.0,162.0
125.0,120.0,114.0,53.0
1.0,7.0,9.89949493661,38.6264158317
;
140.0,139.0,140.0
49.0,71.0,77.0
40.6078810085,19.0,13.0

