0.0,44.0,91.0,173.0,212.0,221.0
114.0,88.0,76.0,33.0,12.0,0.0
1.0,9.48683298051,9.48683298051,18.0277563773,7.81024967591,1.0
;
255.0,225.0,188.0,173.0
42.0,47.0,44.0,33.0
1.0,6.40312423743,5.0,18.0277563773

