205.0,220.0,226.0,214.0,205.0,187.0,163.0,120.0
27.0,23.0,32.0,35.0,27.0,24.0,35.0,67.0
11.7046999107,6.7082039325,2.0,4.0,11.7046999107,15.8113883008,20.0,37.3363094052
;
131.0,112.0,60.0
99.0,113.0,133.0
39.3192065027,27.0,1.0
;
41.0,21.0,6.0,0.0,17.0,28.0,64.0,87.0,120.0
105.0,107.0,91.0,77.0,54.0,53.0,68.0,63.0,67.0
1.0,3.0,4.12310562562,6.0,4.12310562562,5.38516480713,8.0622577483,20.0,37.3363094052
;
120.0,131.0
67.0,99.0
37.3363094052,39.3192065027
;
131.0,152.0,219.0,230.0
99.0,107.0,107.0,96.0
39.3192065027,33.2415402772,14.5602197786,1.0

