204.0,220.0,231.0,206.0,191.0,125.0,123.0,97.0,99.0,123.0
135.0,129.0,114.0,69.0,51.0,58.0,58.0,84.0,92.0,68.0
1.0,8.94427191,14.0,26.0,41.0,40.718546143,39.9624824054,6.7082039325,1.0,31.6227766017
;
123.0,123.0,102.0,87.0
68.0,100.0,130.0,129.0
31.6227766017,17.0,9.0,1.0
;
102.0,59.0,38.0,16.0,7.0,21.0,38.0
53.0,31.0,31.0,25.0,35.0,45.0,31.0
35.2278299076,23.769728648,21.9317121995,11.1803398875,2.82842712475,5.0,21.9317121995

