129.0,123.0
35.0,18.0
8.0622577483,10.7703296143
;
67.0,63.0
47.0,23.0
9.0,16.1245154966
;
21.0,10.0,12.0,21.0,63.0,123.0,221.0
18.0,16.0,21.0,18.0,23.0,18.0,19.0
7.0,2.2360679775,2.0,7.0,16.1245154966,10.7703296143,13.4536240471
;
221.0,237.0
19.0,0.0
13.4536240471,1.0
;
221.0,235.0,255.0
19.0,40.0,54.0
13.4536240471,6.40312423743,1.0

