255.0,210.0,158.0,134.0,135.0,128.0,96.0,62.0,45.0
87.0,78.0,53.0,55.0,59.0,55.0,61.0,60.0,54.0
1.0,7.0,20.5182845287,32.0156211872,28.2842712475,33.0,32.3109888428,16.0312195419,19.8494332413
;
45.0,52.0,56.0
54.0,32.0,33.0
19.8494332413,10.6301458127,7.0
;
45.0,15.0,10.0,12.0
54.0,68.0,80.0,89.0
19.8494332413,14.0,5.83095189485,1.0

