230.0,238.0,244.0,219.0,211.0,208.0,171.0,121.0,98.0,77.0,47.0
219.0,198.0,157.0,140.0,122.0,94.0,90.0,98.0,94.0,84.0,45.0
3.0,5.0,10.7703296143,15.6204993518,25.0,41.2310562562,39.3192065027,42.3792402008,36.7967389859,25.2388589282,19.4164878389
;
0.0,17.0,34.0,47.0,59.0,66.0,58.0,59.0
68.0,66.0,49.0,45.0,25.0,18.0,10.0,25.0
3.0,8.54400374532,18.0277563773,19.4164878389,10.4403065089,5.0,5.83095189485,10.4403065089
;
121.0,114.0,100.0,95.0,86.0,88.0
98.0,148.0,169.0,190.0,203.0,209.0
42.3792402008,16.1554944214,6.0,6.32455532034,5.0,1.0

