252.0,245.0,231.0,196.0,181.0,168.0,153.0,149.0,114.0,69.0,36.0,0.0
76.0,79.0,73.0,41.0,33.0,29.0,34.0,33.0,24.0,35.0,21.0,33.0
3.60555127546,6.0827625303,4.472135955,5.83095189485,7.61577310586,11.1803398875,20.0997512422,21.0237960416,24.7386337537,19.2353840617,11.6619037897,2.0
;
0.0,36.0,69.0,114.0,149.0,153.0,171.0,187.0,195.0
33.0,21.0,35.0,24.0,33.0,34.0,54.0,58.0,52.0
2.0,11.6619037897,19.2353840617,24.7386337537,21.0237960416,20.0997512422,9.0,6.40312423743,1.0
;
147.0,142.0,149.0
71.0,50.0,33.0
5.0,8.24621125124,21.0237960416
;
69.0,64.0,53.0,26.0
35.0,55.0,69.0,76.0
19.2353840617,7.07106781187,4.12310562562,1.0

