22.0,53.0,57.0
112.0,70.0,47.0
9.43398113206,26.3058928759,35.4682957019
;
53.0,57.0,53.0,60.0,54.0,64.0,90.0
70.0,47.0,70.0,86.0,113.0,124.0,128.0
26.3058928759,35.4682957019,26.3058928759,14.3178210633,8.48528137424,7.28010988928,2.82842712475
;
52.0,34.0,22.0,9.0,1.0,22.0,39.0,57.0,72.0,114.0,132.0,145.0
135.0,131.0,112.0,110.0,66.0,39.0,39.0,47.0,41.0,40.0,42.0,50.0
2.2360679775,8.0,9.43398113206,4.0,10.0498756211,16.5529453572,24.1660919472,35.4682957019,33.0,34.0,35.0570962859,36.235341864
;
145.0,139.0,148.0,147.0,157.0,173.0
50.0,95.0,109.0,119.0,130.0,136.0
36.235341864,18.0,9.0,8.94427191,7.07106781187,2.2360679775
;
173.0,157.0,147.0,137.0,130.0,139.0,145.0
136.0,130.0,119.0,122.0,115.0,95.0,50.0
2.2360679775,7.07106781187,8.94427191,6.7082039325,8.0622577483,18.0,36.235341864
;
145.0,219.0,243.0,255.0
50.0,24.0,38.0,40.0
36.235341864,16.2788205961,10.0,4.0

