0.0,27.0,64.0,78.0,93.0,125.0,155.0,165.0,189.0,210.0,250.0
84.0,68.0,30.0,24.0,26.0,21.0,27.0,28.0,20.0,19.0,28.0
2.0,2.82842712475,6.40312423743,11.401754251,17.691806013,22.8473193176,21.8403296678,20.0997512422,14.5602197786,13.4536240471,5.0
;
165.0,177.0,165.0,156.0,155.0
28.0,60.0,65.0,53.0,27.0
20.0997512422,4.472135955,2.82842712475,4.12310562562,21.8403296678
;
93.0,88.0,94.0,106.0
26.0,56.0,64.0,68.0
17.691806013,4.472135955,3.60555127546,1.0

