0.0,16.0,63.0,70.0,78.0,106.0,140.0,160.0,192.0,208.0,224.0,245.0,232.0
92.0,91.0,63.0,44.0,36.0,24.0,38.0,53.0,60.0,62.0,81.0,126.0,138.0
1.0,3.60555127546,8.48528137424,10.6301458127,13.6014705087,22.8473193176,30.0,37.8549864615,37.3630833845,31.6227766017,16.0,8.0622577483,1.0
;
232.0,245.0,224.0,208.0,192.0,160.0,140.0,106.0,78.0,70.0,63.0,65.0,55.0
138.0,126.0,81.0,62.0,60.0,53.0,38.0,24.0,36.0,44.0,63.0,118.0,132.0
1.0,8.0622577483,16.0,31.6227766017,37.3630833845,37.8549864615,30.0,22.8473193176,13.6014705087,10.6301458127,8.48528137424,5.0,1.0
;
116.0,118.0,136.0,143.0,160.0
136.0,117.0,95.0,73.0,53.0
7.61577310586,8.0,13.0,18.1107702763,37.8549864615
;
192.0,192.0,185.0
60.0,127.0,133.0
37.3630833845,7.28010988928,3.0
;
131.0,143.0,142.0,136.0
134.0,128.0,104.0,95.0
1.0,8.0622577483,8.0,13.0

