255.0,222.0,214.0,182.0,161.0,138.0,121.0,100.0,85.0,37.0,10.0,1.0
173.0,173.0,177.0,164.0,145.0,103.0,84.0,63.0,56.0,18.0,19.0,27.0
1.0,3.0,7.0,5.83095189485,8.0622577483,19.6468827044,34.9284983931,38.8329756779,35.4682957019,14.0,10.0,1.0
;
34.0,36.0,32.0,34.0,45.0,85.0
117.0,123.0,121.0,117.0,99.0,56.0
3.16227766017,2.0,2.0,3.16227766017,5.0,35.4682957019
;
121.0,111.0,116.0,75.0
84.0,108.0,166.0,172.0
34.9284983931,15.8113883008,9.8488578018,2.82842712475

