255.0,241.0,211.0,199.0,186.0,177.0,159.0,99.0,79.0,34.0,13.0,15.0
68.0,68.0,44.0,42.0,47.0,44.0,38.0,41.0,41.0,16.0,24.0,43.0
1.0,3.16227766017,7.07106781187,12.0415945788,21.0,24.6981780705,25.2982212813,26.9258240357,24.1867732449,13.8924439894,11.401754251,4.0
;
15.0,13.0,34.0,79.0,99.0,159.0,177.0,186.0,204.0,220.0,216.0,203.0
43.0,24.0,16.0,41.0,41.0,38.0,44.0,47.0,75.0,90.0,99.0,103.0
4.0,11.401754251,13.8924439894,24.1867732449,26.9258240357,25.2982212813,24.6981780705,21.0,8.48528137424,6.7082039325,4.0,1.0
;
177.0,176.0,156.0
44.0,96.0,107.0
24.6981780705,6.0,1.0
;
101.0,99.0
98.0,41.0
5.0,26.9258240357
;
79.0,66.0,46.0
41.0,83.0,109.0
24.1867732449,6.32455532034,1.0

