13,1
16,1
;
3,0
14,1
;
2,6
3,4
6,0
8,2
8,6
;
5,1
6,4
;
1,5
2,3
8,7
8,13
;
6,3
14,0
;
3,1
4,1
;
12,1
13,0
;
7,0
11,0
11,4
;
0,0
1,4
;
9,1
10,0
15,1
;
5,0
11,5
;
2,8
8,1
8,4
;
12,0
16,0
;
4,0
6,2
;
2,5
8,5
8,9
9,0
;
3,3
6,1

