7,0
7,4
11,0
11,4
;
6,0
14,6
;
0,4
0,11
3,11
13,0
;
5,0
13,6
;
0,12
0,21
2,14
3,5
;
6,1
13,5
;
4,1
14,4
;
10,1
11,6
;
9,0
9,10
13,8
14,9
;
1,0
2,13
;
8,3
12,0
;
5,1
14,8
;
0,3
0,7
3,14
;
7,6
10,0
;
4,0
13,4
;
0,8
0,15
3,8
8,5
;
13,2
14,0
;
1,13
1,17

