0,3
8,4
;
8,12
;
3,15
5,4
5,10
6,13
6,19
10,4
10,9
10,14
12,3
;
3,14
5,9
5,13
6,10
6,14
;
4,0
8,2
;
0,0
3,20
5,0
5,3
6,20
6,23
10,0
10,3
;
8,15
;
8,19
;
1,2
2,0
3,12
5,11
5,15
6,8
6,12
11,0
13,0
;
8,0
8,10
;
2,4
3,0
3,8
5,20
6,3
11,4
13,4
;
4,1
8,9
;
3,19
5,2
5,8
6,15
6,21
8,7
10,2
10,8
;
3,21
5,1
6,22
8,3
10,1
;
1,0
12,0
;
2,3
3,7
3,9
5,16
5,19
6,4
6,7
11,3
13,3
;
8,11
8,20
;
3,11
5,14
5,18
6,5
6,9
;
2,5
3,6
6,2
11,10

