1,3
10,1
11,3
;
1,11
2,0
8,8
13,0
14,0
15,2
;
5,3
6,3
;
1,7
1,10
9,2
13,3
14,3
15,3
15,6
;
0,5
1,5
11,5
13,5
13,9
;
3,0
6,4
;
4,0
4,4
6,0
;
0,0
9,0
11,10
12,0
;
0,4
1,6
1,8
11,6
13,4
13,6
14,4
15,5
15,9
;
3,1
7,0
;
1,9
1,13
12,4
13,2
14,2
15,0
15,4
;
0,7
10,0
13,7
14,14
;
2,3
7,6
;
14,6
15,7
15,10

