255.0,245.0,238.0,237.0,229.0,210.0,207.0,169.0,134.0,126.0,73.0,56.0,53.0,20.0,13.0,3.0,1.0,4.0,3.0,4.0,6.0,6.0,8.0,10.0
42.0,35.0,34.0,35.0,32.0,29.0,27.0,38.0,52.0,50.0,48.0,50.0,52.0,41.0,41.0,47.0,50.0,56.0,59.0,70.0,73.0,83.0,90.0,92.0
4.0,9.8488578018,14.8660687473,15.6204993518,18.2482875909,21.5870331449,20.6155281281,28.0,43.4165866922,43.0,37.0135110466,36.6742416418,36.4005494464,14.3178210633,10.6301458127,5.83095189485,6.0827625303,3.0,3.0,3.0,4.24264068712,5.0,2.2360679775,1.0
;
45.0,53.0,45.0,29.0,27.0,28.0,32.0,42.0,48.0,58.0,66.0
87.0,52.0,87.0,106.0,120.0,126.0,130.0,133.0,132.0,139.0,141.0
17.0,36.4005494464,17.0,7.07106781187,7.0,8.0,7.0,3.0,6.7082039325,5.0,3.60555127546
;
48.0,49.0,48.0,51.0,49.0,45.0,53.0
132.0,131.0,115.0,100.0,92.0,87.0,52.0
6.7082039325,7.28010988928,7.0,10.4403065089,14.8660687473,17.0,36.4005494464
;
134.0,139.0,134.0,133.0,134.0,144.0,144.0
52.0,73.0,100.0,120.0,136.0,142.0,146.0
43.4165866922,25.9615099715,10.0,7.28010988928,9.0,5.83095189485,5.0
;
189.0,187.0,183.0,181.0,171.0,167.0,162.0,153.0,139.0,134.0
131.0,133.0,132.0,133.0,129.0,115.0,108.0,89.0,73.0,52.0
1.0,3.0,4.12310562562,5.0,8.0,5.83095189485,7.81024967591,11.0453610172,25.9615099715,43.4165866922

