145.0,161.0,167.0,170.0,165.0,152.0,146.0,134.0,128.0,127.0,123.0
181.0,163.0,150.0,137.0,132.0,131.0,128.0,117.0,109.0,101.0,90.0
3.16227766017,4.12310562562,4.12310562562,5.83095189485,6.7082039325,8.0,11.7046999107,23.0,31.0,36.7695526217,44.7772263545
;
123.0,127.0,128.0,126.0,127.0,126.0,115.0,110.0,106.0,107.0,106.0,110.0,116.0,123.0,125.0
90.0,101.0,109.0,113.0,114.0,115.0,133.0,154.0,162.0,197.0,201.0,208.0,210.0,210.0,212.0
44.7772263545,36.7695526217,31.0,27.0,26.0,25.0,10.0,7.07106781187,7.21110255093,5.0,5.38516480713,6.0,4.0,3.0,1.0
;
88.0,83.0,78.0,70.0,67.0,53.0,52.0,50.0,53.0,57.0,57.0,52.0,50.0
209.0,214.0,214.0,204.0,197.0,176.0,170.0,168.0,161.0,139.0,129.0,111.0,109.0
1.0,6.0,8.94427191,5.0,4.24264068712,6.32455532034,8.0,8.48528137424,8.24621125124,11.1803398875,13.9283882772,26.8700576851,28.4429253067
;
1.0,6.0,5.0,6.0,12.0,38.0,50.0,53.0,67.0,105.0,117.0,123.0,129.0,155.0,171.0,192.0,194.0,198.0,216.0,239.0,247.0,255.0
208.0,203.0,202.0,192.0,159.0,123.0,109.0,95.0,88.0,86.0,87.0,90.0,87.0,82.0,75.0,54.0,49.0,45.0,17.0,14.0,11.0,13.0
1.0,6.32455532034,6.40312423743,5.0,9.21954445729,15.0,28.4429253067,38.9486841883,40.8044115262,44.0,44.9110231458,44.7772263545,41.4366987102,27.2946881279,21.1896201004,16.1245154966,14.7648230602,14.8660687473,16.0,9.21954445729,6.7082039325,2.0

