103.0,116.0
51.0,39.0
6.0,10.0
;
112.0,117.0,116.0,120.0,127.0,126.0,123.0,119.0,107.0
23.0,38.0,39.0,45.0,66.0,81.0,88.0,92.0,92.0
22.360679775,11.0453610172,10.0,8.54400374532,3.0,3.0,4.0,5.38516480713,1.0
;
91.0,91.0,97.0,99.0,106.0,111.0,104.0,103.0,100.0,100.0,98.0
91.0,89.0,84.0,80.0,75.0,69.0,56.0,51.0,44.0,32.0,24.0
1.0,2.2360679775,3.60555127546,3.60555127546,3.16227766017,3.0,4.24264068712,6.0,7.21110255093,15.2643375225,22.5610283454
;
67.0,66.0,67.0,74.0,75.0,69.0,64.0,54.0,46.0
31.0,43.0,47.0,57.0,61.0,67.0,66.0,69.0,76.0
16.2788205961,8.54400374532,7.21110255093,5.38516480713,5.0,4.24264068712,3.0,3.60555127546,1.0
;
1.0,0.0,1.0,11.0,19.0,25.0,26.0,55.0,67.0,86.0,97.0,98.0,108.0,109.0,112.0,115.0,125.0,134.0,160.0,198.0,213.0,232.0,234.0,243.0,245.0,255.0
42.0,39.0,38.0,34.0,28.0,26.0,24.0,30.0,31.0,25.0,23.0,24.0,22.0,20.0,23.0,21.0,19.0,20.0,26.0,40.0,43.0,42.0,43.0,41.0,42.0,39.0
1.0,3.0,3.16227766017,9.0,12.2065556157,13.6014705087,13.0,11.1803398875,16.2788205961,20.1246117975,22.360679775,22.5610283454,23.0,22.360679775,22.360679775,21.5870331449,19.0,17.0,12.0830459736,6.0,5.0,3.0,3.0,2.0,2.0,1.0

