213.0,210.0,212.0,214.0,217.0,229.0,231.0,218.0,213.0,210.0,205.0,202.0,182.0,174.0,168.0,145.0,118.0,110.0
99.0,113.0,126.0,129.0,129.0,124.0,116.0,102.0,99.0,92.0,61.0,56.0,55.0,57.0,56.0,57.0,60.0,63.0
13.8924439894,7.07106781187,7.0,7.81024967591,5.38516480713,7.0,7.81024967591,10.295630141,13.8924439894,13.6014705087,31.1126983722,35.4400902933,38.0,39.8120584748,40.0,39.0128184063,37.1079506306,38.0131556175
;
110.0,107.0,108.0,107.0,116.0,115.0,117.0,116.0,111.0,112.0
63.0,74.0,77.0,80.0,102.0,108.0,119.0,127.0,132.0,138.0
38.0131556175,29.8328677804,27.5862284483,25.495097568,9.8488578018,9.0,7.0,8.0,6.32455532034,3.0
;
110.0,85.0,65.0,50.0
63.0,48.0,32.0,24.0
38.0131556175,26.1725046566,21.4709105536,22.0227155455
;
53.0,52.0,53.0,54.0,53.0,50.0
20.0,19.0,18.0,19.0,20.0,24.0
18.0,17.0,16.0,17.0,18.0,22.0227155455
;
50.0,36.0,27.0,17.0,11.0,11.0,13.0,21.0,27.0
24.0,27.0,31.0,42.0,38.0,30.0,28.0,28.0,31.0
22.0227155455,17.0,15.5241746963,5.0,1.0,8.0622577483,9.8488578018,12.1655250606,15.5241746963

