164.0,165.0,174.0,180.0,179.0,182.0,186.0
95.0,96.0,95.0,90.0,64.0,54.0,47.0
2.0,2.2360679775,5.0,8.24621125124,9.48683298051,16.1245154966,22.0907220344
;
183.0,186.0,195.0,198.0,205.0,217.0,216.0,208.0,205.0,204.0
33.0,47.0,57.0,65.0,72.0,80.0,88.0,94.0,93.0,94.0
29.0688837075,22.0907220344,13.0,9.21954445729,6.7082039325,6.7082039325,5.38516480713,2.0,1.41421356237,1.0
;
255.0,242.0,230.0,225.0,220.0,214.0,206.0,196.0,189.0,183.0,180.0,174.0,161.0,156.0,149.0,121.0,98.0,82.0,79.0,68.0,65.0,52.0,33.0,30.0,15.0,13.0
83.0,79.0,69.0,58.0,38.0,30.0,27.0,27.0,29.0,33.0,30.0,28.0,27.0,25.0,28.0,33.0,34.0,37.0,36.0,38.0,40.0,34.0,31.0,29.0,42.0,46.0
2.0,3.60555127546,5.0,5.38516480713,7.61577310586,9.8488578018,13.4536240471,19.8494332413,24.6981780705,29.0688837075,29.0688837075,28.0,28.0,29.1547594742,28.2842712475,30.0665927567,31.0,29.5465734054,28.4604989415,25.495097568,24.3310501212,18.0,16.0,16.0,11.401754251,10.8166538264
;
31.0,33.0,39.0,49.0,56.0,59.0,58.0,65.0
95.0,97.0,96.0,83.0,77.0,71.0,56.0,40.0
1.0,2.0,4.0,5.38516480713,7.81024967591,10.6301458127,13.0,24.3310501212

