203.0,210.0,216.0,220.0,229.0,239.0,241.0,240.0,243.0,245.0
49.0,44.0,43.0,40.0,41.0,51.0,58.0,65.0,70.0,82.0
29.5465734054,24.0416305603,19.2353840617,15.2643375225,9.48683298051,3.0,4.472135955,5.09901951359,6.0,2.82842712475
;
240.0,227.0
65.0,76.0
5.09901951359,9.48683298051
;
230.0,234.0,239.0,242.0,241.0,242.0,240.0,234.0,227.0,214.0,203.0,199.0,184.0,175.0,154.0,125.0,109.0,105.0,100.0,93.0,50.0,43.0,36.0,18.0,27.0
140.0,139.0,133.0,115.0,114.0,98.0,93.0,87.0,76.0,68.0,49.0,46.0,43.0,43.0,48.0,49.0,43.0,39.0,40.0,38.0,38.0,40.0,45.0,64.0,75.0
2.2360679775,3.60555127546,4.472135955,4.0,4.0,6.0,6.40312423743,6.40312423743,9.48683298051,20.0,29.5465734054,30.083217913,32.5729949498,34.0,36.6742416418,37.0135110466,31.8276609257,29.6141857899,28.6530975638,26.4764045897,19.6468827044,21.0950231097,18.6010752377,12.3693168769,1.0
;
43.0,37.0,39.0,38.0,39.0,37.0,38.0,36.0,37.0,36.0
40.0,31.0,28.0,27.0,14.0,11.0,8.0,4.0,1.0,0.0
21.0950231097,13.0,10.8166538264,10.0,5.38516480713,5.0,4.0,3.0,1.41421356237,1.0
;
27.0,18.0,36.0,43.0,50.0,93.0,100.0,105.0,109.0,125.0,154.0,175.0,184.0,199.0,203.0,214.0,212.0,212.0,219.0,217.0,218.0,213.0,207.0,202.0
75.0,64.0,45.0,40.0,38.0,38.0,40.0,39.0,43.0,49.0,48.0,43.0,43.0,46.0,49.0,68.0,75.0,86.0,105.0,106.0,110.0,132.0,143.0,145.0
1.0,12.3693168769,18.6010752377,21.0950231097,19.6468827044,26.4764045897,28.6530975638,29.6141857899,31.8276609257,37.0135110466,36.6742416418,34.0,32.5729949498,30.083217913,29.5465734054,20.0,15.6204993518,9.43398113206,6.0827625303,5.09901951359,5.38516480713,4.12310562562,4.24264068712,3.60555127546
;
142.0,137.0,133.0,129.0,124.0,123.0,126.0,126.0,123.0,125.0
126.0,120.0,119.0,115.0,104.0,100.0,91.0,75.0,64.0,49.0
2.82842712475,5.38516480713,5.0,5.0,5.38516480713,5.0,6.0827625303,13.4536240471,23.3452350599,37.0135110466
;
125.0,123.0,116.0,111.0,109.0,105.0,99.0,88.0
49.0,64.0,72.0,82.0,96.0,106.0,137.0,145.0
37.0135110466,23.3452350599,15.2315462117,9.0,6.32455532034,5.38516480713,5.83095189485,1.0

