140.0,123.0,113.0,101.0,103.0,107.0
111.0,108.0,99.0,75.0,73.0,48.0
3.60555127546,12.0415945788,16.1554944214,27.2946881279,28.8444102037,45.1774279923
;
176.0,183.0,182.0,186.0,198.0,209.0,218.0
51.0,77.0,78.0,84.0,93.0,106.0,111.0
37.2021504755,22.0227155455,21.0950231097,18.6815416923,13.416407865,9.89949493661,3.60555127546
;
243.0,236.0,227.0,219.0,214.0,212.0,209.0,202.0,183.0,176.0,171.0,149.0,144.0,141.0,133.0,122.0,107.0,101.0,100.0,98.0,94.0,69.0,44.0,26.0,15.0,3.0,0.0
78.0,63.0,54.0,51.0,50.0,51.0,49.0,48.0,49.0,51.0,48.0,44.0,45.0,43.0,44.0,42.0,48.0,45.0,46.0,44.0,45.0,44.0,53.0,70.0,86.0,97.0,98.0
12.0415945788,15.8113883008,17.4642491966,19.2093727123,20.1246117975,20.0997512422,21.1896201004,22.8473193176,32.6496554346,37.2021504755,37.8549864615,40.0249921924,40.0124980475,41.2310562562,42.0119030752,43.6806593357,45.1774279923,42.7551166529,41.7731971484,41.3037528561,38.8329756779,25.4558441227,14.1421356237,8.60232526704,5.38516480713,3.16227766017,2.0

