4.0,14.0,23.0,30.0,61.0,48.0,32.0,30.0,89.0,85.0,75.0,61.0,143.0,112.0,97.0,89.0,176.0,168.0,163.0,160.0,155.0,143.0
80.0,73.0,69.0,62.0,57.0,56.0,60.0,62.0,50.0,49.0,51.0,57.0,39.0,40.0,45.0,50.0,38.0,29.0,30.0,29.0,30.0,39.0
4.0,6.40312423743,9.21954445729,14.5602197786,18.8679622641,16.1554944214,15.2315462117,14.5602197786,17.4642491966,17.0293863659,17.2626765016,18.8679622641,10.7703296143,12.0,15.0,17.4642491966,1.0,5.09901951359,4.0,5.0,6.0,10.7703296143
;
146.0,140.0,152.0,153.0,165.0,175.0,178.0,179.0,178.0,180.0,179.0,184.0,183.0,184.0,186.0,183.0,182.0,184.0
45.0,57.0,64.0,63.0,67.0,68.0,72.0,75.0,76.0,78.0,79.0,86.0,88.0,90.0,92.0,94.0,93.0,90.0
7.0,3.60555127546,4.0,4.472135955,3.60555127546,1.41421356237,1.41421356237,2.2360679775,2.2360679775,2.82842712475,2.0,2.82842712475,2.2360679775,2.2360679775,2.82842712475,1.0,1.0,2.2360679775
;
207.0,206.0,208.0,207.0,198.0,187.0,180.0,177.0,176.0,163.0,158.0,156.0,151.0,146.0,143.0
83.0,81.0,80.0,76.0,63.0,52.0,52.0,54.0,53.0,54.0,52.0,53.0,52.0,45.0,39.0
1.0,1.0,1.0,2.0,2.82842712475,2.0,3.0,3.0,4.0,4.12310562562,4.0,4.0,4.0,7.0,10.7703296143
;
176.0,168.0,163.0,160.0,155.0,143.0,112.0,97.0,89.0,85.0,75.0,61.0,48.0,32.0,30.0,26.0,19.0,4.0
38.0,29.0,30.0,29.0,30.0,39.0,40.0,45.0,50.0,49.0,51.0,57.0,56.0,60.0,62.0,59.0,57.0,61.0
1.0,5.09901951359,4.0,5.0,6.0,10.7703296143,12.0,15.0,17.4642491966,17.0293863659,17.2626765016,18.8679622641,16.1554944214,15.2315462117,14.5602197786,12.0830459736,7.21110255093,1.0
;
56.0,62.0
72.0,79.0
5.09901951359,2.0
;
50.0,54.0
77.0,82.0
3.0,3.0
;
58.0,54.0
81.0,75.0
3.0,3.60555127546
;
112.0,111.0,113.0,115.0,112.0,113.0,111.0
91.0,95.0,98.0,94.0,91.0,88.0,86.0
2.2360679775,2.0,1.0,1.41421356237,2.2360679775,1.41421356237,1.0
;
106.0,86.0,87.0,92.0,92.0,89.0
86.0,77.0,72.0,67.0,57.0,50.0
2.2360679775,3.0,2.0,6.0,12.0830459736,17.4642491966
;
47.0,40.0,38.0,39.0,41.0,40.0,44.0,47.0,48.0,51.0,47.0
85.0,86.0,88.0,95.0,98.0,99.0,102.0,101.0,102.0,98.0,85.0
4.12310562562,2.82842712475,2.2360679775,2.0,1.41421356237,2.0,1.0,1.0,1.0,2.0,4.12310562562
;
111.0,109.0
86.0,89.0
1.0,2.0
;
112.0,111.0,113.0,115.0,112.0,110.0,109.0
91.0,95.0,98.0,94.0,91.0,91.0,89.0
2.2360679775,2.0,1.0,1.41421356237,2.2360679775,2.0,2.0
;
92.0,96.0,110.0,112.0
67.0,72.0,79.0,85.0
6.0,2.82842712475,1.41421356237,1.41421356237
;
61.0,62.0,61.0,58.0,56.0,54.0,50.0,46.0,47.0
57.0,62.0,63.0,71.0,72.0,75.0,77.0,79.0,85.0
18.8679622641,14.8660687473,14.0356688476,7.0,5.09901951359,3.60555127546,3.0,2.0,4.12310562562
;
61.0,63.0,66.0,65.0,62.0,61.0,58.0,55.0,54.0,47.0
63.0,65.0,75.0,78.0,79.0,81.0,81.0,83.0,82.0,85.0
14.0356688476,12.0415945788,3.60555127546,2.2360679775,2.0,2.82842712475,3.0,3.0,3.0,4.12310562562

