64.0,57.0,53.0,46.0,41.0,47.0,50.0,55.0,55.0,53.0
52.0,71.0,91.0,94.0,99.0,106.0,106.0,100.0,95.0,91.0
34.1320963318,17.4928556845,12.0830459736,7.81024967591,7.07106781187,3.60555127546,4.0,6.40312423743,9.21954445729,12.0830459736
;
0.0,13.0,22.0,33.0,45.0,55.0,60.0,64.0,70.0,94.0,120.0,129.0,131.0,144.0,151.0,166.0,188.0,208.0,229.0,255.0
58.0,58.0,54.0,52.0,51.0,53.0,51.0,52.0,48.0,45.0,46.0,48.0,50.0,49.0,50.0,54.0,69.0,73.0,71.0,62.0
3.0,10.0,14.1421356237,17.4642491966,21.9544984001,27.8028775489,31.8904374382,34.1320963318,37.5765884561,43.6577599059,44.1474801093,43.382023927,42.0594816896,37.6961536499,35.2278299076,28.4429253067,15.5241746963,10.0,6.40312423743,2.0

