0.0,9.0,15.0,33.0,42.0,49.0,86.0,94.0,95.0,112.0,114.0,115.0,121.0,128.0,140.0,146.0,152.0,162.0,176.0,192.0,200.0,212.0,221.0,234.0,243.0,246.0
68.0,68.0,65.0,44.0,37.0,34.0,39.0,42.0,41.0,45.0,47.0,46.0,49.0,47.0,49.0,48.0,49.0,53.0,53.0,60.0,58.0,58.0,62.0,72.0,74.0,77.0
5.0,9.89949493661,14.7648230602,21.0950231097,24.4131112315,25.0,30.0,31.384709653,32.2490309932,37.6563407675,38.2099463491,39.0128184063,40.6078810085,41.0,40.6078810085,40.162171256,39.2173431023,38.6264158317,33.5410196625,28.1602556807,21.9317121995,13.416407865,8.60232526704,6.40312423743,4.0,1.0
;
213.0,223.0,228.0,237.0,244.0,246.0,237.0,223.0,210.0,204.0,192.0
126.0,124.0,121.0,120.0,113.0,105.0,99.0,96.0,89.0,83.0,60.0
1.0,5.0,5.38516480713,8.60232526704,9.8488578018,11.401754251,8.94427191,11.0453610172,15.2315462117,17.0,28.1602556807
;
162.0,164.0,169.0,168.0,159.0,142.0,140.0,130.0,127.0,125.0
53.0,81.0,107.0,114.0,120.0,124.0,122.0,124.0,123.0,125.0
38.6264158317,16.2788205961,10.0,9.89949493661,7.0,5.0,5.0,4.12310562562,3.0,1.0
;
139.0,138.0,140.0,141.0,139.0,140.0
71.0,73.0,77.0,73.0,71.0,49.0
19.0,17.0,13.0,17.0,19.0,40.6078810085
;
121.0,118.0,116.0,117.0,113.0,109.0,102.0,100.0,85.0,65.0,63.0
49.0,63.0,65.0,70.0,90.0,100.0,111.0,118.0,130.0,132.0,130.0
40.6078810085,27.8567765544,25.495097568,21.9544984001,12.0830459736,10.8166538264,9.8488578018,10.7703296143,6.0,3.16227766017,1.0

