5.0,11.0,13.0,21.0,29.0,36.0,61.0,79.0,94.0,116.0,146.0,184.0,194.0,199.0,202.0,215.0,224.0,232.0,246.0,250.0,247.0,248.0,242.0,231.0
7.0,12.0,11.0,13.0,19.0,21.0,50.0,68.0,79.0,78.0,83.0,85.0,90.0,95.0,104.0,117.0,130.0,136.0,143.0,147.0,160.0,165.0,169.0,168.0
5.0,9.05538513814,9.0,11.0,16.1245154966,17.0880074906,22.825424421,31.304951685,38.4707681233,38.0,37.0,33.6154726279,31.8276609257,31.2409987036,26.9258240357,14.0356688476,10.7703296143,8.54400374532,7.21110255093,7.81024967591,6.0,6.7082039325,5.0,1.0
;
173.0,179.0,190.0,194.0,195.0,193.0,194.0,202.0
178.0,181.0,175.0,171.0,162.0,146.0,126.0,104.0
5.0,5.83095189485,7.21110255093,8.0,8.0,10.0498756211,14.0,26.9258240357
;
94.0,87.0,82.0,75.0,67.0,52.0,50.0,44.0,34.0,31.0,29.0,25.0
79.0,101.0,110.0,135.0,149.0,164.0,172.0,179.0,180.0,182.0,180.0,181.0
38.4707681233,24.0416305603,20.0,13.416407865,10.6301458127,11.1803398875,7.61577310586,7.0,6.0,7.21110255093,7.0,5.0
;
34.0,48.0,52.0
161.0,162.0,164.0
6.0,8.54400374532,11.1803398875

