148.0,160.0,171.0,172.0,165.0,159.0,155.0,150.0,146.0,143.0,148.0,146.0,141.0
87.0,99.0,113.0,115.0,121.0,123.0,120.0,119.0,115.0,99.0,87.0,69.0,56.0
18.0,8.54400374532,7.07106781187,7.81024967591,5.09901951359,5.0,6.32455532034,8.0,8.0,10.1980390272,18.0,25.495097568,33.9558536927
;
202.0,203.0,200.0,201.0
32.0,11.0,1.0,0.0
21.5870331449,4.24264068712,1.41421356237,1.0
;
248.0,241.0,235.0,223.0,220.0,218.0,202.0,184.0,165.0,141.0,73.0,58.0,47.0,35.0,18.0,12.0,8.0,7.0,8.0,0.0
43.0,38.0,36.0,36.0,38.0,36.0,32.0,36.0,43.0,56.0,53.0,58.0,54.0,52.0,52.0,55.0,60.0,80.0,81.0,86.0
7.28010988928,8.94427191,10.295630141,16.4012194669,18.3575597507,19.2093727123,21.5870331449,20.2237484162,23.0,33.9558536927,29.6141857899,32.0156211872,26.2488094968,21.5870331449,12.7279220614,9.8488578018,8.0,7.0,6.32455532034,6.0
;
54.0,56.0,58.0,54.0,59.0,61.0,59.0
86.0,80.0,58.0,86.0,94.0,102.0,114.0
20.0,21.0237960416,32.0156211872,20.0,13.416407865,8.94427191,9.43398113206
;
75.0,74.0,63.0,59.0
128.0,122.0,118.0,114.0
6.0,7.61577310586,8.94427191,9.43398113206
;
59.0,55.0,47.0,37.0,32.0,35.0,54.0,56.0,58.0
114.0,118.0,122.0,120.0,116.0,109.0,86.0,80.0,58.0
9.43398113206,7.0,4.472135955,7.0,9.89949493661,8.0622577483,20.0,21.0237960416,32.0156211872

