5.0,16.0,28.0,33.0,37.0,43.0,56.0,65.0,78.0,81.0,91.0,97.0,110.0,119.0,168.0,189.0,195.0,197.0,222.0,236.0,247.0,252.0,255.0
10.0,9.0,13.0,12.0,17.0,20.0,32.0,36.0,35.0,33.0,36.0,33.0,34.0,31.0,32.0,29.0,30.0,28.0,31.0,38.0,52.0,67.0,68.0
5.0,8.94427191,9.43398113206,10.8166538264,10.1980390272,9.48683298051,14.1421356237,17.2626765016,19.0,19.0262975904,20.591260282,19.4164878389,18.973665961,16.7630546142,7.0,6.0,5.38516480713,5.0,3.60555127546,2.82842712475,2.82842712475,4.12310562562,4.0
;
255.0,252.0,247.0,236.0,222.0,197.0,197.0,193.0,189.0,168.0,119.0,110.0,97.0,91.0,81.0,78.0,65.0,56.0,43.0,37.0,33.0,28.0,16.0,5.0
68.0,67.0,52.0,38.0,31.0,28.0,26.0,23.0,29.0,32.0,31.0,34.0,33.0,36.0,33.0,35.0,36.0,32.0,20.0,17.0,12.0,13.0,9.0,10.0
4.0,4.12310562562,2.82842712475,2.82842712475,3.60555127546,5.0,3.0,1.0,6.0,7.0,16.7630546142,18.973665961,19.4164878389,20.591260282,19.0262975904,19.0,17.2626765016,14.1421356237,9.48683298051,10.1980390272,10.8166538264,9.43398113206,8.94427191,5.0
;
33.0,32.0,34.0,33.0
0.0,1.0,6.0,12.0
1.0,1.41421356237,5.83095189485,10.8166538264
;
39.0,46.0,52.0,55.0,55.0,59.0,65.0
59.0,63.0,62.0,58.0,50.0,42.0,36.0
1.0,4.472135955,6.32455532034,5.83095189485,6.0,11.1803398875,17.2626765016
;
91.0,92.0,90.0,93.0,93.0,88.0,82.0,79.0
36.0,52.0,60.0,69.0,95.0,100.0,102.0,106.0
20.591260282,9.8488578018,7.07106781187,6.7082039325,3.60555127546,2.82842712475,3.16227766017,1.0
;
128.0,130.0,133.0,140.0,141.0,140.0,133.0,116.0,112.0,110.0
99.0,97.0,98.0,92.0,89.0,78.0,69.0,54.0,47.0,34.0
1.0,1.41421356237,2.0,2.82842712475,3.0,4.0,4.24264068712,7.07106781187,9.21954445729,18.973665961

