49.0,48.0,49.0,50.0,49.0,54.0,96.0,119.0,133.0,172.0,182.0,190.0,199.0,199.0,193.0,182.0,170.0,166.0
43.0,42.0,41.0,42.0,43.0,55.0,61.0,69.0,66.0,65.0,67.0,71.0,79.0,107.0,116.0,127.0,134.0,138.0
25.0,24.0,23.0,24.0,25.0,35.0,40.7921561087,50.960769225,51.0,53.1507290637,52.8866712887,51.6236379966,50.2493781056,31.7804971641,23.5372045919,13.0384048104,4.0,1.0
;
104.0,103.0,106.0,104.0,106.0,105.0,108.0,119.0
126.0,130.0,128.0,126.0,122.0,117.0,103.0,69.0
13.0,9.0,11.0,13.0,17.0,19.4164878389,25.495097568,50.960769225

