3.0,9.0,15.0,21.0,35.0,52.0,57.0,61.0,62.0,82.0,95.0,103.0,114.0,129.0,154.0,171.0,204.0,215.0,217.0,223.0,224.0,230.0,234.0,233.0
100.0,105.0,100.0,98.0,86.0,68.0,64.0,63.0,61.0,62.0,66.0,71.0,67.0,68.0,78.0,73.0,57.0,54.0,53.0,43.0,26.0,8.0,2.0,0.0
1.0,7.61577310586,8.94427191,10.6301458127,9.21954445729,7.07106781187,8.48528137424,10.0,10.0,23.0217288664,33.9558536927,41.0,41.7731971484,43.1740662898,43.0116263352,33.1209903234,22.825424421,24.6981780705,24.0831891576,18.0277563773,8.0622577483,6.32455532034,2.82842712475,1.0
;
215.0,225.0,229.0,233.0,242.0
54.0,67.0,80.0,84.0,84.0
24.6981780705,16.0,11.401754251,9.05538513814,1.0
;
223.0,225.0,227.0,244.0,249.0,251.0,248.0
43.0,44.0,43.0,31.0,22.0,13.0,10.0
18.0277563773,17.0,15.0,6.0827625303,5.38516480713,3.60555127546,1.0
;
233.0,234.0,230.0,224.0,223.0,217.0,215.0,204.0,171.0,154.0,129.0,114.0,103.0,93.0,87.0,74.0,64.0,56.0,47.0,40.0,28.0,21.0,21.0,25.0,35.0
0.0,2.0,8.0,26.0,43.0,53.0,54.0,57.0,73.0,78.0,68.0,67.0,71.0,84.0,89.0,93.0,98.0,104.0,108.0,115.0,139.0,161.0,167.0,171.0,172.0
1.0,2.82842712475,6.32455532034,8.0622577483,18.0277563773,24.0831891576,24.6981780705,22.825424421,33.1209903234,43.0116263352,43.1740662898,41.7731971484,41.0,31.7647603485,29.0688837075,20.2484567313,15.6204993518,13.0,9.89949493661,9.89949493661,7.61577310586,8.0,9.21954445729,8.48528137424,5.38516480713
;
111.0,90.0,88.0,89.0,82.0,80.0,80.0,88.0,89.0,87.0
183.0,178.0,176.0,175.0,157.0,146.0,131.0,111.0,97.0,89.0
1.0,9.0,8.0,8.0622577483,6.0827625303,8.0622577483,10.0,14.8660687473,23.3452350599,29.0688837075
;
154.0,155.0,152.0,148.0,150.0,154.0,159.0,160.0,162.0,169.0,175.0
78.0,86.0,93.0,113.0,135.0,148.0,158.0,173.0,177.0,180.0,180.0
43.0116263352,36.6742416418,30.4138126515,15.8113883008,9.43398113206,7.61577310586,7.07106781187,9.0,8.48528137424,5.0,3.16227766017
;
216.0,212.0,204.0,200.0,197.0,195.0,193.0,186.0,186.0,181.0,179.0,180.0,177.0,164.0,155.0,154.0
186.0,186.0,181.0,181.0,178.0,162.0,160.0,142.0,138.0,124.0,122.0,121.0,113.0,95.0,86.0,78.0
1.0,4.0,6.40312423743,8.60232526704,8.94427191,6.0,6.32455532034,8.0622577483,9.0,12.6491106407,12.6491106407,13.0384048104,15.0,27.0,36.6742416418,43.0116263352

