0.0,19.0,41.0,53.0,63.0,72.0,81.0,85.0,90.0,94.0,110.0,143.0,144.0,149.0,161.0,178.0,189.0,194.0,210.0,212.0,220.0,223.0,225.0,232.0,237.0,238.0,244.0,250.0,252.0
10.0,5.0,19.0,25.0,28.0,34.0,36.0,39.0,37.0,38.0,34.0,30.0,28.0,29.0,27.0,30.0,29.0,31.0,33.0,32.0,35.0,34.0,36.0,37.0,40.0,39.0,45.0,45.0,43.0
2.0,6.40312423743,10.6301458127,13.416407865,17.0,22.1359436212,26.9258240357,28.1780056072,27.2946881279,26.3058928759,21.4709105536,13.0,12.0415945788,13.0,12.5299640861,11.0,11.0,11.1803398875,11.1803398875,11.0,11.0453610172,10.1980390272,11.0,10.1980390272,10.0498756211,8.94427191,7.0,3.0,1.0
;
190.0,189.0,190.0,191.0,190.0
26.0,25.0,24.0,25.0,26.0
8.0,7.0,6.0,7.0,8.0
;
190.0,189.0
26.0,29.0
8.0,11.0
;
94.0,99.0,107.0,113.0,111.0,104.0,100.0,99.0
38.0,43.0,63.0,73.0,92.0,95.0,95.0,97.0
26.3058928759,21.0,6.7082039325,7.61577310586,6.0,3.0,2.0,1.0

