119.0,127.0,129.0,135.0,136.0,139.0,140.0,129.0
65.0,78.0,85.0,108.0,127.0,137.0,148.0,158.0
50.6359556047,40.0,34.4818792991,23.0,17.2046505341,15.0,15.2315462117,6.0
;
10.0,12.0,13.0,20.0,27.0,32.0,43.0,56.0,68.0,71.0,74.0,85.0,93.0,119.0,132.0,167.0,190.0,198.0,219.0,234.0,238.0,246.0,243.0,242.0,243.0,241.0
147.0,144.0,129.0,114.0,93.0,82.0,68.0,66.0,67.0,70.0,68.0,67.0,68.0,65.0,53.0,40.0,37.0,41.0,43.0,36.0,32.0,15.0,8.0,3.0,2.0,0.0
7.61577310586,9.05538513814,8.94427191,10.7703296143,17.0,22.0,32.3109888428,36.0555127546,41.0,40.0,42.0475920833,43.5660418216,45.1220566907,50.6359556047,46.5295604965,30.0,26.1725046566,24.0208242989,20.0,14.3178210633,12.1655250606,9.21954445729,7.0,3.60555127546,2.82842712475,1.0

