87.0,90.0,94.0,98.0,102.0,107.0,123.0,124.0,123.0,125.0,124.0,123.0,117.0,102.0,88.0,66.0,59.0,41.0,38.0,28.0,21.0,15.0,7.0,8.0,12.0,16.0,30.0,38.0
129.0,132.0,131.0,132.0,130.0,119.0,100.0,97.0,68.0,58.0,57.0,58.0,55.0,53.0,45.0,36.0,31.0,32.0,31.0,41.0,45.0,44.0,35.0,30.0,26.0,25.0,27.0,31.0
1.0,4.472135955,5.65685424949,7.0,9.0,8.54400374532,17.0,17.0,31.6227766017,40.718546143,41.0,39.9624824054,39.0,35.2278299076,29.0172362571,23.6008474424,23.769728648,23.0,21.9317121995,10.0498756211,5.0,4.12310562562,2.82842712475,7.21110255093,10.0,11.1803398875,17.0880074906,21.9317121995
;
38.0,30.0,16.0,12.0,8.0,7.0,15.0,21.0,28.0,38.0,41.0,59.0,66.0,88.0,102.0,117.0,123.0,124.0,125.0,130.0,158.0,178.0,191.0,206.0,216.0,224.0,231.0,231.0,220.0,217.0,216.0,208.0,204.0
31.0,27.0,25.0,26.0,30.0,35.0,44.0,45.0,41.0,31.0,32.0,31.0,36.0,45.0,53.0,55.0,58.0,57.0,58.0,56.0,55.0,51.0,51.0,69.0,92.0,101.0,114.0,116.0,129.0,131.0,130.0,131.0,135.0
21.9317121995,17.0880074906,11.1803398875,10.0,7.21110255093,2.82842712475,4.12310562562,5.0,10.0498756211,21.9317121995,23.0,23.769728648,23.6008474424,29.0172362571,35.2278299076,39.0,39.9624824054,41.0,40.718546143,40.0,40.0,42.0,41.0,26.0,15.5563491861,12.0415945788,14.0,14.0,8.94427191,7.07106781187,6.40312423743,4.0,1.0

