17.0,10.0,10.0,25.0,41.0,55.0,70.0,91.0,104.0,116.0
143.0,134.0,124.0,102.0,89.0,91.0,96.0,99.0,98.0,94.0
1.0,9.48683298051,14.1421356237,20.2484567313,25.5538646784,20.0,16.0,16.1245154966,20.6155281281,28.6356421266
;
116.0,100.0,106.0,107.0,100.0
94.0,59.0,52.0,41.0,30.0
28.6356421266,15.8113883008,10.4403065089,6.32455532034,4.0
;
116.0,126.0,128.0
94.0,99.0,97.0
28.6356421266,31.0161248385,31.064449134
;
128.0,135.0,136.0,137.0,141.0,142.0,143.0,142.0,141.0
97.0,103.0,104.0,103.0,106.0,105.0,106.0,107.0,106.0
31.064449134,26.0,25.0,24.0,20.0,19.0,18.0,19.0,20.0
;
141.0,142.0,143.0,142.0,141.0,137.0,141.0,135.0,136.0,137.0,135.0,134.0,136.0,135.0,136.0,137.0,136.0
106.0,105.0,106.0,107.0,106.0,103.0,106.0,103.0,104.0,103.0,103.0,105.0,107.0,108.0,109.0,108.0,107.0
20.0,19.0,18.0,19.0,20.0,24.0,20.0,26.0,25.0,24.0,26.0,25.0,23.0,22.0,21.0,22.0,23.0
;
128.0,134.0,158.0,164.0,181.0,187.0,195.0,206.0,217.0,222.0,232.0,243.0,250.0,255.0
97.0,92.0,61.0,51.0,31.0,30.0,23.0,17.0,6.0,9.0,11.0,5.0,5.0,8.0
31.064449134,27.0,18.3847763109,19.4164878389,25.9615099715,25.8069758011,21.8403296678,17.691806013,18.973665961,15.6524758425,10.0498756211,4.0,2.0,1.0

