82.0,89.0,94.0,98.0,97.0,99.0,94.0,93.0,94.0,91.0,86.0,88.0
218.0,219.0,215.0,208.0,207.0,200.0,176.0,159.0,144.0,136.0,131.0,97.0
1.0,2.82842712475,3.60555127546,4.0,4.0,4.0,5.0,7.0,9.05538513814,13.0,17.0293863659,38.8973006776
;
37.0,22.0,11.0,7.0,8.0,6.0,5.0,7.0
40.0,39.0,41.0,48.0,50.0,51.0,50.0,48.0
18.2482875909,11.401754251,8.24621125124,2.0,1.0,1.41421356237,1.0,2.0
;
37.0,40.0,43.0,45.0,52.0,52.0,53.0
40.0,38.0,31.0,21.0,7.0,1.0,0.0
18.2482875909,17.0,12.0415945788,11.0,3.0,1.41421356237,1.0
;
37.0,41.0,45.0,49.0,59.0,64.0,88.0,93.0,115.0,131.0,195.0,200.0,211.0,215.0,225.0,245.0,250.0,249.0,251.0,250.0,251.0,255.0
40.0,46.0,66.0,75.0,85.0,88.0,97.0,94.0,93.0,90.0,91.0,98.0,122.0,126.0,131.0,151.0,177.0,182.0,189.0,193.0,197.0,200.0
18.2482875909,17.0,18.0,20.8806130178,24.0831891576,26.4007575649,38.8973006776,39.0,38.1182371051,40.0249921924,42.2965719651,37.1079506306,22.360679775,19.6977156036,12.5299640861,7.81024967591,4.0,4.0,4.0,4.0,5.0,7.0

