218.0,219.0,223.0,210.0,204.0,192.0,176.0,171.0,165.0,160.0,127.0,115.0,106.0,91.0,83.0,81.0,79.0,72.0,59.0,31.0,8.0,5.0,1.0
0.0,1.0,20.0,22.0,21.0,24.0,31.0,35.0,34.0,36.0,35.0,36.0,39.0,38.0,40.0,42.0,40.0,38.0,38.0,48.0,69.0,69.0,65.0
1.0,1.41421356237,16.1245154966,15.0,16.0,19.0,26.0,28.0178514522,29.0,29.5465734054,28.0,27.2946881279,27.2029410175,22.1359436212,21.0237960416,20.2484567313,19.2093727123,13.6014705087,6.40312423743,3.60555127546,3.60555127546,3.60555127546,1.0
;
56.0,48.0,45.0,45.0,50.0,58.0,65.0,74.0,81.0
107.0,100.0,94.0,84.0,79.0,75.0,69.0,56.0,42.0
1.0,4.24264068712,5.0,6.0,6.7082039325,7.21110255093,9.21954445729,13.4536240471,20.2484567313
;
106.0,105.0,97.0,105.0,112.0,115.0
39.0,67.0,87.0,99.0,102.0,107.0
27.2029410175,9.21954445729,6.32455532034,5.0,4.12310562562,2.0
;
185.0,175.0,162.0,160.0,161.0,160.0
98.0,99.0,74.0,67.0,55.0,36.0
1.0,6.0,7.21110255093,8.0622577483,13.4536240471,29.5465734054
;
171.0,184.0,189.0,204.0,207.0,213.0,222.0,223.0
35.0,53.0,71.0,90.0,93.0,95.0,96.0,95.0
28.0178514522,13.0,7.61577310586,5.0,5.0,3.16227766017,2.0,1.0

