88.0,88.0,86.0,95.0,97.0,100.0,104.0,114.0,114.0,117.0,121.0
209.0,205.0,203.0,190.0,177.0,169.0,160.0,148.0,143.0,136.0,98.0
1.0,3.16227766017,5.0,6.32455532034,5.0,6.0,8.94427191,16.1554944214,16.7630546142,17.0880074906,42.3792402008
;
59.0,56.0,58.0,66.0,66.0,61.0,59.0
25.0,18.0,10.0,18.0,20.0,25.0,25.0
10.4403065089,6.0827625303,5.83095189485,5.0,6.40312423743,9.21954445729,10.4403065089
;
59.0,52.0,47.0
25.0,33.0,45.0
10.4403065089,12.2065556157,19.4164878389
;
0.0,8.0,13.0,17.0,16.0,34.0,47.0
68.0,69.0,65.0,66.0,63.0,49.0,45.0
3.0,8.0622577483,10.6301458127,8.54400374532,11.401754251,18.0277563773,19.4164878389
;
47.0,56.0,67.0,77.0,98.0,103.0,110.0,119.0,121.0,123.0,128.0,145.0,171.0,198.0,208.0,210.0,211.0,219.0,232.0,241.0,244.0,244.0,237.0,238.0,234.0,230.0,231.0,230.0
45.0,54.0,74.0,84.0,94.0,95.0,94.0,96.0,98.0,96.0,95.0,95.0,90.0,90.0,94.0,99.0,122.0,140.0,151.0,153.0,157.0,165.0,197.0,198.0,211.0,214.0,218.0,219.0
19.4164878389,16.5529453572,20.2484567313,25.2388589282,36.7967389859,39.3192065027,41.0,43.0,42.3792402008,43.0464865001,42.5793377121,43.0813184571,39.3192065027,40.6078810085,41.2310562562,38.0788655293,25.0,15.6204993518,13.3416640641,11.7046999107,10.7703296143,7.21110255093,5.0,5.0,6.0,5.0,3.16227766017,3.0

