255.0,251.0,242.0,228.0,220.0,203.0,196.0,189.0,172.0,164.0,152.0,128.0,121.0,119.0,117.0,107.0,88.0,53.0,34.0,14.0
83.0,82.0,83.0,77.0,70.0,49.0,43.0,40.0,41.0,36.0,32.0,33.0,34.0,36.0,34.0,33.0,35.0,20.0,21.0,28.0
2.0,4.12310562562,5.09901951359,6.40312423743,7.07106781187,9.21954445729,11.313708499,14.8660687473,25.4558441227,25.9422435421,27.1661554144,30.0,31.0,30.4630924235,31.0,30.0,26.9072480941,17.2626765016,14.3178210633,11.1803398875
;
88.0,80.0,79.0,75.0,77.0,76.0
35.0,61.0,96.0,100.0,102.0,107.0
26.9072480941,9.0,6.32455532034,5.0,3.60555127546,1.0
;
112.0,113.0,112.0,109.0,112.0,113.0,114.0,113.0,119.0,120.0,119.0
110.0,105.0,102.0,100.0,98.0,95.0,86.0,85.0,64.0,55.0,36.0
1.0,4.24264068712,7.07106781187,7.0,8.0,7.0,6.0,6.0,9.21954445729,14.1421356237,30.4630924235
;
172.0,171.0,173.0,171.0,169.0,171.0,171.0,166.0,158.0
41.0,43.0,62.0,75.0,77.0,80.0,93.0,98.0,97.0
25.4558441227,24.0831891576,15.1327459504,13.0,12.0,10.295630141,6.0,5.38516480713,1.0

