255.0,248.0,243.0,219.0,216.0,205.0,182.0,157.0,145.0
40.0,40.0,38.0,24.0,26.0,27.0,35.0,48.0,50.0
4.0,7.81024967591,10.0,16.2788205961,17.0,16.4924225025,20.0,32.4499614792,36.235341864
;
139.0,138.0,139.0,145.0,139.0,131.0,130.0,137.0,143.0,146.0,147.0,157.0,163.0,165.0,168.0,173.0
95.0,92.0,80.0,50.0,95.0,106.0,115.0,122.0,122.0,121.0,119.0,130.0,131.0,133.0,131.0,136.0
18.0,18.0,19.0,36.235341864,18.0,10.0,8.0622577483,6.7082039325,7.28010988928,9.0,8.94427191,7.07106781187,6.7082039325,5.83095189485,6.0,2.2360679775
;
147.0,148.0,146.0,139.0,138.0,139.0,145.0
119.0,109.0,104.0,95.0,92.0,80.0,50.0
8.94427191,9.0,11.0,18.0,18.0,19.0,36.235341864
;
145.0,132.0,114.0,72.0,57.0
50.0,42.0,40.0,41.0,47.0
36.235341864,35.0570962859,34.0,33.0,35.4682957019
;
53.0,55.0,57.0,53.0,58.0,60.0,60.0,54.0,54.0,64.0,90.0
70.0,52.0,47.0,70.0,78.0,86.0,94.0,109.0,113.0,124.0,128.0
26.3058928759,32.5729949498,35.4682957019,26.3058928759,19.6977156036,14.3178210633,10.6301458127,8.54400374532,8.48528137424,7.28010988928,2.82842712475
;
52.0,49.0,34.0,29.0,22.0,13.0,12.0,9.0,5.0,6.0,5.0,1.0,6.0,11.0,22.0,33.0,39.0,46.0,57.0
135.0,132.0,131.0,126.0,112.0,111.0,112.0,110.0,81.0,78.0,73.0,66.0,61.0,49.0,39.0,38.0,39.0,41.0,47.0
2.2360679775,5.0,8.0,7.21110255093,9.43398113206,3.0,3.16227766017,4.0,5.0,5.0,6.0,10.0498756211,7.21110255093,10.1980390272,16.5529453572,20.8806130178,24.1660919472,28.4429253067,35.4682957019
;
57.0,55.0,53.0,42.0,34.0,22.0
47.0,52.0,70.0,81.0,96.0,112.0
35.4682957019,32.5729949498,26.3058928759,16.0,9.89949493661,9.43398113206

