80.0,81.0,85.0,89.0,94.0,100.0,110.0,113.0,111.0,105.0
101.0,112.0,117.0,115.0,117.0,117.0,112.0,85.0,78.0,68.0
10.0498756211,10.0,8.54400374532,6.40312423743,4.0,4.0,8.0,13.0,17.4642491966,25.7099202644
;
109.0,107.0,105.0,92.0,86.0,80.0
46.0,63.0,68.0,83.0,94.0,101.0
39.9624824054,28.4253408071,25.7099202644,13.3416640641,10.6301458127,10.0498756211
;
80.0,71.0,68.0,53.0,49.0,40.0,32.0,30.0,30.0,28.0,30.0,40.0,51.0,57.0,69.0,82.0,94.0,107.0,109.0,111.0,126.0,148.0,150.0,157.0,170.0,175.0,176.0,193.0,206.0,216.0,220.0,220.0,215.0
101.0,96.0,96.0,104.0,105.0,104.0,97.0,93.0,89.0,87.0,81.0,70.0,63.0,52.0,45.0,42.0,42.0,44.0,46.0,44.0,41.0,39.0,41.0,43.0,44.0,48.0,47.0,59.0,74.0,92.0,105.0,107.0,112.0
10.0498756211,5.0,4.24264068712,4.12310562562,5.0,5.83095189485,7.81024967591,8.0622577483,9.0,8.94427191,10.1980390272,13.416407865,20.6155281281,22.803508502,24.1867732449,28.4604989415,32.8937684068,39.8120584748,39.9624824054,40.0,38.3275357935,41.7851648316,42.7200187266,43.0116263352,42.7200187266,40.7062648741,40.0,24.0831891576,13.0,8.94427191,10.295630141,11.0,6.0
;
193.0,188.0,189.0,180.0,176.0,175.0
116.0,111.0,105.0,84.0,64.0,48.0
7.0,10.0498756211,10.295630141,12.0415945788,26.4007575649,40.7062648741

