160.0,150.0,143.0,139.0,136.0,126.0,118.0,116.0,117.0,116.0
53.0,63.0,73.0,82.0,95.0,103.0,117.0,126.0,134.0,136.0
37.8549864615,27.0,18.1107702763,13.0384048104,13.0,8.94427191,8.0,6.0827625303,8.0622577483,7.61577310586
;
131.0,143.0,142.0,136.0,139.0,143.0,150.0,160.0
134.0,128.0,104.0,95.0,82.0,73.0,63.0,53.0
1.0,8.0622577483,8.0,13.0,13.0384048104,18.1107702763,27.0,37.8549864615
;
192.0,193.0,192.0,185.0
60.0,112.0,127.0,133.0
37.3630833845,7.0,7.28010988928,3.0
;
232.0,241.0,244.0,245.0,224.0,208.0,193.0,192.0,185.0,175.0,161.0,160.0,140.0,116.0,106.0,94.0,78.0,70.0,66.0,65.0,63.0,65.0,64.0,65.0,62.0,55.0
138.0,133.0,130.0,126.0,81.0,62.0,59.0,60.0,57.0,56.0,52.0,53.0,38.0,27.0,24.0,28.0,36.0,44.0,53.0,61.0,63.0,67.0,115.0,118.0,125.0,132.0
1.0,7.07106781187,8.54400374532,8.0622577483,16.0,31.6227766017,37.1618083521,37.3630833845,38.275318418,38.8973006776,38.3275357935,37.8549864615,30.0,22.4722050542,22.8473193176,19.1049731745,13.6014705087,10.6301458127,8.94427191,8.0622577483,8.48528137424,8.0,5.0,5.0,5.0,1.0
;
0.0,9.0,16.0,22.0,36.0,55.0,63.0
92.0,93.0,91.0,86.0,80.0,65.0,63.0
1.0,3.0,3.60555127546,5.38516480713,5.0,4.472135955,8.48528137424

