11.0,11.0,8.0,8.0,24.0,33.0,43.0,49.0,55.0,86.0,111.0,113.0,116.0,124.0,162.0,180.0,197.0,198.0
145.0,140.0,137.0,117.0,98.0,82.0,71.0,58.0,56.0,56.0,60.0,62.0,60.0,61.0,49.0,38.0,31.0,29.0
3.0,5.83095189485,7.21110255093,8.0,12.2065556157,22.0,31.4006369362,40.162171256,39.8497176903,39.4588393139,37.3363094052,36.1386219992,36.4965751818,36.0138862107,27.2946881279,23.769728648,24.3310501212,23.4093998214
;
198.0,200.0,199.0,201.0,202.0
29.0,23.0,13.0,1.0,0.0
23.4093998214,18.3847763109,9.43398113206,1.41421356237,1.0
;
198.0,200.0,207.0,238.0
29.0,31.0,33.0,34.0
23.4093998214,23.769728648,20.6155281281,14.4222051019

