133.0,138.0,140.0,139.0,136.0,137.0,140.0,143.0
140.0,145.0,150.0,168.0,174.0,179.0,182.0,200.0
4.12310562562,4.12310562562,8.0622577483,23.3238075794,28.4429253067,24.0831891576,21.0237960416,4.472135955
;
167.0,162.0,139.0,138.0,136.0,137.0,136.0,115.0,136.0,111.0,115.0,99.0,97.0,111.0
255.0,244.0,209.0,205.0,203.0,179.0,174.0,153.0,174.0,149.0,153.0,126.0,132.0,149.0
2.0,2.2360679775,2.2360679775,2.2360679775,2.2360679775,24.0831891576,28.4429253067,16.5529453572,28.4429253067,18.3847763109,16.5529453572,16.4924225025,20.591260282,18.3847763109
;
99.0,94.0,79.0,82.0
126.0,128.0,108.0,100.0
16.4924225025,21.2602916255,26.4196896272,22.2036033112
;
69.0,95.0
94.0,68.0
30.8706980809,3.16227766017
;
36.0,34.0,31.0,35.0,36.0
38.0,40.0,39.0,35.0,38.0
24.0208242989,22.0,19.0,23.3452350599,24.0208242989
;
93.0,87.0,81.0,63.0
66.0,66.0,69.0,86.0
3.16227766017,5.83095189485,11.0453610172,32.2490309932
;
36.0,43.0,47.0,63.0,69.0
38.0,47.0,58.0,86.0,94.0
24.0208242989,26.1725046566,29.5465734054,32.2490309932,30.8706980809
;
95.0,102.0,105.0,106.0,104.0,99.0,82.0,76.0
68.0,71.0,74.0,77.0,82.0,88.0,100.0,104.0
3.16227766017,2.82842712475,2.82842712475,3.60555127546,4.472135955,6.32455532034,22.2036033112,28.3019433962
;
123.0,120.0,113.0,113.0,122.0,123.0,119.0,108.0,99.0
77.0,76.0,86.0,93.0,104.0,109.0,113.0,118.0,126.0
1.0,1.0,1.41421356237,3.16227766017,2.82842712475,3.0,4.472135955,7.28010988928,16.4924225025
;
133.0,123.0,115.0
140.0,145.0,153.0
4.12310562562,7.0,16.5529453572
;
143.0,138.0
200.0,205.0
4.472135955,2.2360679775
;
167.0,162.0,139.0,138.0,136.0,137.0,136.0,139.0,140.0,138.0,133.0
255.0,244.0,209.0,205.0,203.0,179.0,174.0,168.0,150.0,145.0,140.0
2.0,2.2360679775,2.2360679775,2.2360679775,2.2360679775,24.0831891576,28.4429253067,23.3238075794,8.0622577483,4.12310562562,4.12310562562
;
133.0,134.0,131.0,124.0,111.0,96.0,96.0,94.0,98.0
140.0,138.0,136.0,137.0,149.0,164.0,174.0,180.0,185.0
4.12310562562,5.83095189485,5.0,6.0,18.3847763109,5.0,4.12310562562,2.0,1.0
;
99.0,97.0,111.0,115.0,136.0,137.0,136.0,143.0,140.0,137.0
126.0,132.0,149.0,153.0,174.0,179.0,174.0,200.0,182.0,179.0
16.4924225025,20.591260282,18.3847763109,16.5529453572,28.4429253067,24.0831891576,28.4429253067,4.472135955,21.0237960416,24.0831891576
;
99.0,97.0,111.0,115.0,136.0,142.0,156.0,166.0,164.0,160.0,156.0,154.0,150.0,146.0,143.0
126.0,132.0,149.0,153.0,174.0,177.0,179.0,189.0,200.0,204.0,205.0,204.0,206.0,205.0,200.0
16.4924225025,20.591260282,18.3847763109,16.5529453572,28.4429253067,23.3238075794,10.0498756211,2.0,2.0,2.2360679775,2.0,2.0,2.0,2.0,4.472135955
;
111.0,97.0,99.0,115.0,111.0,136.0,115.0,156.0,142.0,136.0,156.0,166.0,169.0,204.0,209.0,217.0
149.0,132.0,126.0,153.0,149.0,174.0,153.0,179.0,177.0,174.0,179.0,176.0,179.0,197.0,201.0,204.0
18.3847763109,20.591260282,16.4924225025,16.5529453572,18.3847763109,28.4429253067,16.5529453572,10.0498756211,23.3238075794,28.4429253067,10.0498756211,2.0,2.0,3.0,2.82842712475,2.0

