73.0,77.0,81.0,92.0,94.0,104.0,109.0,115.0,120.0
117.0,121.0,120.0,112.0,104.0,87.0,72.0,61.0,56.0
1.0,4.0,5.83095189485,8.94427191,8.0622577483,10.295630141,20.2484567313,31.0,36.2215405525
;
130.0,129.0,113.0
57.0,128.0,144.0
37.6430604494,10.1980390272,1.0
;
180.0,183.0,192.0,202.0,197.0,194.0,191.0
140.0,137.0,138.0,128.0,114.0,99.0,57.0
1.0,3.60555127546,6.7082039325,9.89949493661,9.21954445729,11.1803398875,37.1214223865
;
244.0,240.0,224.0,218.0,209.0,199.0,191.0,184.0,151.0,133.0,130.0,128.0,120.0,97.0,65.0,49.0,48.0,40.0,32.0,19.0,10.0,9.0,18.0,21.0,25.0,29.0,33.0,32.0
110.0,110.0,92.0,78.0,66.0,56.0,57.0,55.0,54.0,55.0,57.0,55.0,56.0,43.0,31.0,27.0,29.0,30.0,34.0,37.0,42.0,46.0,57.0,58.0,57.0,53.0,41.0,34.0
6.40312423743,8.54400374532,9.89949493661,15.0,24.0208242989,34.6554469023,37.1214223865,37.2155881319,38.0,38.0,37.6430604494,38.0,36.2215405525,25.0,19.9248588452,19.2353840617,20.0,18.6815416923,17.4928556845,11.1803398875,10.295630141,8.0622577483,4.0,4.12310562562,6.0,6.32455532034,12.0415945788,17.4928556845
;
49.0,47.0,42.0,41.0
27.0,12.0,1.0,0.0
19.2353840617,6.40312423743,1.41421356237,1.0

