238.0,241.0,238.0,237.0,238.0,234.0,232.0,232.0,220.0,206.0,187.0,172.0,164.0,155.0,150.0,145.0,141.0,126.0,121.0,114.0,106.0,99.0,76.0,56.0,40.0,38.0,34.0,19.0,3.0,1.0
91.0,90.0,87.0,88.0,91.0,100.0,101.0,104.0,115.0,120.0,119.0,111.0,103.0,90.0,79.0,73.0,63.0,47.0,45.0,45.0,47.0,46.0,49.0,39.0,35.0,33.0,35.0,20.0,10.0,7.0
14.0,13.0,10.0,11.0,14.0,14.3178210633,13.416407865,15.0,15.6524758425,17.0293863659,18.0277563773,17.0880074906,15.8113883008,13.416407865,17.0,21.0950231097,27.1661554144,36.7967389859,37.6430604494,37.2155881319,37.1618083521,34.885527085,30.4138126515,23.0,21.0,20.8086520467,21.3775583264,8.0622577483,2.82842712475,1.0
;
42.0,43.0,40.0,38.0
0.0,1.0,9.0,33.0
1.0,1.41421356237,6.40312423743,20.8086520467

