255.0,225.0,223.0,220.0,214.0,192.0,183.0,160.0,159.0,126.0,111.0,103.0,98.0,97.0
45.0,35.0,36.0,34.0,35.0,32.0,33.0,31.0,32.0,31.0,33.0,37.0,36.0,37.0
1.0,4.0,4.0,4.0,4.0,5.09901951359,6.0,8.0,8.0,16.0,20.0997512422,23.0217288664,24.1867732449,23.5372045919
;
97.0,95.0,84.0,69.0,65.0,37.0,27.0,25.0,15.0,5.0,0.0
37.0,35.0,32.0,31.0,32.0,15.0,12.0,10.0,14.0,23.0,23.0
23.5372045919,23.769728648,21.0,20.0,20.3960780544,11.1803398875,11.401754251,10.7703296143,9.21954445729,5.38516480713,2.0
;
65.0,62.0,63.0,62.0,64.0,63.0,65.0,64.0,67.0
32.0,40.0,59.0,61.0,68.0,71.0,74.0,77.0,82.0
20.3960780544,13.4536240471,6.0827625303,6.0,6.0,5.09901951359,5.38516480713,4.0,1.0
;
77.0,78.0,89.0,92.0,98.0,96.0,96.0,92.0,92.0,97.0
95.0,92.0,93.0,91.0,79.0,77.0,71.0,61.0,52.0,37.0
1.0,2.2360679775,4.0,2.82842712475,3.0,5.0,7.0,9.43398113206,12.1655250606,23.5372045919
;
103.0,112.0,127.0,129.0,124.0,121.0,121.0
37.0,56.0,74.0,80.0,92.0,95.0,98.0
23.0217288664,10.295630141,6.0,4.0,3.16227766017,3.16227766017,1.0

